%YAML 1.1
%TAG !u! tag:unity3d.com,2011:
--- !u!1045 &1
EditorBuildSettings:
  m_ObjectHideFlags: 0
  serializedVersion: 2
  m_Scenes:
  - enabled: 1
    path: Assets/Scenes/PacifismStartMenu.unity
    guid: 38818912eaf66e24ca73328c9ba5d7cd
  - enabled: 1
    path: Assets/Scenes/Pacifism.unity
    guid: 8e5f0d60d2432244cb68f61db0f047c5
  - enabled: 1
    path: Assets/Scenes/Warmonger.unity
    guid: 5575d50a4cddd9743b994a4a0caedd30
  - enabled: 0
    path: 
    guid: 00000000000000000000000000000000
  m_configObjects: {}
